[
    {
        "group": "Jazz",
        "image": "",
        "stations": [
            {
                "name": "Smooth Jazz",
                "image": "",
                "url": "http://smoothjazz.com/streams/smoothjazz_128.pls"
            },
            {
                "name": "SKY.fm Piano Jazz",
                "image": "",
                "url": "http://listen.sky.fm/public1/pianojazz.pls"
            },
            {
                "name": "SKY.fm Smooth Jazz",
                "image": "",
                "url": "http://listen.sky.fm/public1/smoothjazz.pls"
            },
            {
                "name": "Sonic Universe",
                "image": "",
                "url": "http://somafm.com/sonicuniverse.pls"
            },
            {
                "name": "Blue FM",
                "image": "",
                "url": "http://bluefm.net/listen.pls"
            },
            {
                "name": "The Breeze",
                "image": "",
                "url": "mmsh://wms-rly.181.fm/181-breeze?MSWMExt=.asf"
            }
        ]
    },
    {
        "group": "Latin",
        "image": "",
        "stations": [
            {
                "name": "Onda Tropical",
                "image": "",
                "url": "http://yp.shoutcast.com/sbin/tunein-station.pls?id=506392"
            },
            {
                "name": "Top Latino Radio",
                "image": "",
                "url": "http://online.radiodifusion.net:8020/listen.pls"
            },
            {
                "name": "Salsa Stream",
                "image": "",
                "url": "http://listen.sky.fm/public3/salsa.pls"
            },
            {
                "name": "Reggaeton 24/7",
                "image": "",
                "url": "http://cc.net2streams.com/tunein.php/reggaeton/playlist.pls"
            },
            {
                "name": "Suave 107",
                "image": "",
                "url": "http://grupomedrano.com.do/suave107/suave107.m3u"
            }
        ]
    },
    {
        "group": "Classic Rock",
        "image": "",
        "stations": [
            {
                "name": "181.FM Classic Hits",
                "image": "",
                "url": "http://sc-rly.181.fm:80/stream/1094"
            },
            {
                "name": ".977 Classic Rock",
                "image": "",
                "url": "http://www.977music.com/tunein/web/classicrock.asx"
            },
            {
                "name": "80s Sky.FM",
                "image": "",
                "url": "http://listen.sky.fm/public3/the80s.pls"
            },
            {
                "name": "Covers",
                "image": "",
                "url": "http://somafm.com/covers.pls"
            }
        ]
    },
    {
        "group": "Classical",
        "image": "",
        "stations": [
            {
                "name": "KDFC",
                "image": "",
                "url": "http://provisioning.streamtheworld.com/pls/KDFCFM.pls"
            },
            {
                "name": "Classic FM",
                "image": "",
                "url": "http://media-ice.musicradio.com/ClassicFMMP3.m3u"
            },
            {
                "name": "WCPE",
                "image": "",
                "url": "http://www.ibiblio.org/wcpe/wcpe.pls"
            },
            {
                "name": "CINEMIX",
                "image": "",
                "url": "http://cinemix.us/cine.asx"
            },
            {
                "name": "SKY.fm Soundtracks",
                "image": "",
                "url": "http://listen.sky.fm/public1/soundtracks.pls"
            },
            {
                "name": "SKY.fm Mostly Classical",
                "image": "",
                "url": "http://listen.sky.fm/public1/classical.pls"
            }
        ]
    },
    {
        "group": "Pop / Rock",
        "image": "",
        "stations": [
            {
                "name": "Radio Paradise",
                "image": "",
                "url": "http://www.radioparadise.com/musiclinks/rp_128aac.m3u"
            },
            {
                "name": ".977 The Hitz Channel",
                "image": "",
                "url": "http://yp.shoutcast.com/sbin/tunein-station.pls?id=1280356"
            },
            {
                "name": "Enjoy Station",
                "image": "",
                "url": "http://yp.shoutcast.com/sbin/tunein-station.pls?id=1377285"
            },
            {
                "name": "SKY.fm Top Hits",
                "image": "",
                "url": "http://listen.sky.fm/public1/tophits.pls"
            },
            {
                "name": "Indie Pop Rocks!",
                "image": "",
                "url": "http://somafm.com/indiepop.pls"
            },
            {
                "name": "PopTron",
                "image": "",
                "url": "http://somafm.com/poptron.pls"
            }
        ]
    },
    {
        "group": "Oldies",
        "image": "",
        "stations": [
            {
                "name": "AM 1710",
                "image": "",
                "url": "http://lin2.ash.fast-serv.com:9022/listen.pls"
            },
            {
                "name": "WNAR",
                "image": "",
                "url": "http://live.wnar-am.com:8500/listen.pls"
            },
            {
                "name": "SKY.fm Oldies",
                "image": "",
                "url": "http://listen.sky.fm/public1/oldies.pls"
            }
        ]
    },
    {
        "group": "Chill",
        "image": "",
        "stations": [
            {
                "name": "181.FM",
                "image": "",
                "url": "http://yp.shoutcast.com/sbin/tunein-station.pls?id=1275050"
            },
            {
                "name": "Lounge Radio",
                "image": "",
                "url": "http://yp.shoutcast.com/sbin/tunein-station.pls?id=1288934"
            },
            {
                "name": "Beat Blender",
                "image": "",
                "url": "http://somafm.com/beatblender.pls"
            },
            {
                "name": "Secret Agent",
                "image": "",
                "url": "http://somafm.com/secretagent.pls"
            },
            {
                "name": "Groove Salad",
                "image": "",
                "url": "http://somafm.com/groovesalad.pls"
            },
            {
                "name": "Illinois Street Lounge",
                "image": "",
                "url": "http://somafm.com/illstreet.pls"
            }
        ]
    },
    {
        "group": "Country",
        "image": "",
        "stations": [
            {
                "name": "SKY.fm Country",
                "image": "",
                "url": "http://listen.sky.fm/public1/country.pls"
            },
            {
                "name": "Boot Liquor",
                "image": "",
                "url": "http://somafm.com/bootliquor.pls"
            },
            {
                "name": "US 181",
                "image": "",
                "url": "mmsh://wms-rly.181.fm/181-us181?MSWMExt=.asf"
            },
            {
                "name": "Real Country",
                "image": "",
                "url": "mmsh://wms-rly.181.fm/181-realcountry?MSWMExt=.asf"
            },
            {
                "name": "Highway 181",
                "image": "",
                "url": "mmsh://wms-rly.181.fm/181-highway?MSWMExt=.asf"
            },
            {
                "name": "Country 108",
                "image": "",
                "url": "http://www.country108.com/listen.pls"
            }
        ]
    },
    {
        "group": "Techno / Electronic",
        "image": "",
        "stations": [
            {
                "name": "Drone Zone",
                "image": "",
                "url": "http://somafm.com/dronezone.pls"
            },
            {
                "name": "Space Station Soma",
                "image": "",
                "url": "http://somafm.com/spacestation.pls"
            },
            {
                "name": "cliqhop idm",
                "image": "",
                "url": "http://somafm.com/cliqhop.pls"
            },
            {
                "name": "Black Rock FM",
                "image": "",
                "url": "http://somafm.com/brfm.pls"
            },
            {
                "name": "New Dance Radio",
                "image": "",
                "url": "http://jbstream.net/tunein.php/blackoutworm/playlist.asx"
            }
        ]
    },
    {
        "group": "Community",
        "image": "",
        "stations": [
            {
                "name": "Jupiter Broadcast",
                "image": "",
                "url": "http://jblive.fm/"
            },
            {
                "name": "WCRS LPFM Columbus",
                "image": "",
                "url": "http://sh4.audio-stream.com/tunein.php/pleonard/playlist.pls"
            },
            {
                "name": "WBEZ",
                "image": "",
                "url": "http://wbez.ic.llnwd.net/stream/wbez_91_5_fm.pls"
            }
        ]
    }
]
