{
  "saved_searches": {}, 
  "user_categories": {}, 
  "field_metadata": {
    "rating": {
      "is_category": true, 
      "is_multiple": {}, 
      "kind": "field", 
      "is_custom": false, 
      "is_csp": false, 
      "column": "rating", 
      "rec_index": 5, 
      "search_terms": [
        "rating"
      ], 
      "link_column": "rating", 
      "label": "rating", 
      "is_editable": true, 
      "datatype": "rating", 
      "category_sort": "rating", 
      "table": "ratings", 
      "display": {}, 
      "name": "Note"
    }, 
    "identifiers": {
      "is_category": true, 
      "is_multiple": {
        "cache_to_list": ",", 
        "ui_to_list": ",", 
        "list_to_ui": ", "
      }, 
      "kind": "field", 
      "is_custom": false, 
      "is_csp": true, 
      "column": null, 
      "rec_index": 20, 
      "search_terms": [
        "identifiers", 
        "identifier", 
        "isbn"
      ], 
      "label": "identifiers", 
      "is_editable": true, 
      "datatype": "text", 
      "table": null, 
      "display": {}, 
      "name": "Identifiants"
    }, 
    "pubdate": {
      "is_category": false, 
      "is_multiple": {}, 
      "kind": "field", 
      "is_custom": false, 
      "is_csp": false, 
      "column": null, 
      "rec_index": 15, 
      "search_terms": [
        "pubdate"
      ], 
      "label": "pubdate", 
      "is_editable": true, 
      "datatype": "datetime", 
      "table": null, 
      "display": {
        "date_format": "MMM yyyy"
      }, 
      "name": "Publi\u00e9"
    }, 
    "series": {
      "is_category": true, 
      "is_multiple": {}, 
      "kind": "field", 
      "is_custom": false, 
      "is_csp": false, 
      "column": "name", 
      "rec_index": 8, 
      "search_terms": [
        "series"
      ], 
      "link_column": "series", 
      "label": "series", 
      "is_editable": true, 
      "datatype": "series", 
      "category_sort": "(title_sort(name))", 
      "table": "series", 
      "display": {}, 
      "name": "S\u00e9rie"
    }, 
    "marked": {
      "is_category": false, 
      "is_multiple": {}, 
      "kind": "field", 
      "is_custom": false, 
      "is_csp": false, 
      "column": null, 
      "rec_index": 23, 
      "search_terms": [
        "marked"
      ], 
      "label": "marked", 
      "is_editable": true, 
      "datatype": "text", 
      "table": null, 
      "display": {}, 
      "name": null
    }, 
    "path": {
      "is_category": false, 
      "is_multiple": {}, 
      "kind": "field", 
      "is_custom": false, 
      "is_csp": false, 
      "column": null, 
      "rec_index": 14, 
      "search_terms": [], 
      "label": "path", 
      "is_editable": true, 
      "datatype": "text", 
      "table": null, 
      "display": {}, 
      "name": "Chemin"
    }, 
    "au_map": {
      "is_category": false, 
      "is_multiple": {
        "cache_to_list": ",", 
        "ui_to_list": null, 
        "list_to_ui": null
      }, 
      "kind": "field", 
      "is_custom": false, 
      "is_csp": false, 
      "column": null, 
      "rec_index": 18, 
      "search_terms": [], 
      "label": "au_map", 
      "is_editable": true, 
      "datatype": "text", 
      "table": null, 
      "display": {}, 
      "name": null
    }, 
    "id": {
      "is_category": false, 
      "is_multiple": {}, 
      "kind": "field", 
      "is_custom": false, 
      "is_csp": false, 
      "column": null, 
      "rec_index": 0, 
      "search_terms": [
        "id"
      ], 
      "label": "id", 
      "is_editable": true, 
      "datatype": "int", 
      "table": null, 
      "display": {}, 
      "name": null
    }, 
    "size": {
      "is_category": false, 
      "is_multiple": {}, 
      "kind": "field", 
      "is_custom": false, 
      "is_csp": false, 
      "column": null, 
      "rec_index": 4, 
      "search_terms": [
        "size"
      ], 
      "label": "size", 
      "is_editable": true, 
      "datatype": "float", 
      "table": null, 
      "display": {}, 
      "name": "Taille"
    }, 
    "uuid": {
      "is_category": false, 
      "is_multiple": {}, 
      "kind": "field", 
      "is_custom": false, 
      "is_csp": false, 
      "column": null, 
      "rec_index": 16, 
      "search_terms": [
        "uuid"
      ], 
      "label": "uuid", 
      "is_editable": true, 
      "datatype": "text", 
      "table": null, 
      "display": {}, 
      "name": null
    }, 
    "title": {
      "is_category": false, 
      "is_multiple": {}, 
      "kind": "field", 
      "is_custom": false, 
      "is_csp": false, 
      "column": null, 
      "rec_index": 1, 
      "search_terms": [
        "title"
      ], 
      "label": "title", 
      "is_editable": true, 
      "datatype": "text", 
      "table": null, 
      "display": {}, 
      "name": "Titre"
    }, 
    "series_sort": {
      "is_category": false, 
      "is_multiple": {}, 
      "kind": "field", 
      "is_custom": false, 
      "is_csp": false, 
      "column": null, 
      "rec_index": 24, 
      "search_terms": [
        "series_sort"
      ], 
      "label": "series_sort", 
      "is_editable": true, 
      "datatype": "text", 
      "table": null, 
      "display": {}, 
      "name": "Tri par s\u00e9rie"
    }, 
    "comments": {
      "is_category": false, 
      "is_multiple": {}, 
      "kind": "field", 
      "is_custom": false, 
      "is_csp": false, 
      "column": null, 
      "rec_index": 7, 
      "search_terms": [
        "comments", 
        "comment"
      ], 
      "label": "comments", 
      "is_editable": true, 
      "datatype": "text", 
      "table": null, 
      "display": {}, 
      "name": "Commentaires"
    }, 
    "languages": {
      "is_category": true, 
      "is_multiple": {
        "cache_to_list": ",", 
        "ui_to_list": ",", 
        "list_to_ui": ", "
      }, 
      "kind": "field", 
      "is_custom": false, 
      "is_csp": false, 
      "column": "lang_code", 
      "rec_index": 21, 
      "search_terms": [
        "languages", 
        "language"
      ], 
      "link_column": "lang_code", 
      "label": "languages", 
      "is_editable": true, 
      "datatype": "text", 
      "category_sort": "lang_code", 
      "table": "languages", 
      "display": {}, 
      "name": "Langues"
    }, 
    "sort": {
      "is_category": false, 
      "is_multiple": {}, 
      "kind": "field", 
      "is_custom": false, 
      "is_csp": false, 
      "column": null, 
      "rec_index": 11, 
      "search_terms": [
        "title_sort"
      ], 
      "label": "sort", 
      "is_editable": true, 
      "datatype": "text", 
      "table": null, 
      "display": {}, 
      "name": "Tri par titre"
    }, 
    "tags": {
      "is_category": true, 
      "is_multiple": {
        "cache_to_list": ",", 
        "ui_to_list": ",", 
        "list_to_ui": ", "
      }, 
      "kind": "field", 
      "is_custom": false, 
      "is_csp": false, 
      "column": "name", 
      "rec_index": 6, 
      "search_terms": [
        "tags", 
        "tag"
      ], 
      "link_column": "tag", 
      "label": "tags", 
      "is_editable": true, 
      "datatype": "text", 
      "category_sort": "name", 
      "table": "tags", 
      "display": {}, 
      "name": "\u00c9tiquettes"
    }, 
    "timestamp": {
      "is_category": false, 
      "is_multiple": {}, 
      "kind": "field", 
      "is_custom": false, 
      "is_csp": false, 
      "column": null, 
      "rec_index": 3, 
      "search_terms": [
        "date"
      ], 
      "label": "timestamp", 
      "is_editable": true, 
      "datatype": "datetime", 
      "table": null, 
      "display": {
        "date_format": "dd MMM yyyy"
      }, 
      "name": "Date"
    }, 
    "last_modified": {
      "is_category": false, 
      "is_multiple": {}, 
      "kind": "field", 
      "is_custom": false, 
      "is_csp": false, 
      "column": null, 
      "rec_index": 19, 
      "search_terms": [
        "last_modified"
      ], 
      "label": "last_modified", 
      "is_editable": true, 
      "datatype": "datetime", 
      "table": null, 
      "display": {
        "date_format": "dd MMM yyyy"
      }, 
      "name": "Modifi\u00e9"
    }, 
    "authors": {
      "is_category": true, 
      "is_multiple": {
        "cache_to_list": ",", 
        "ui_to_list": "&", 
        "list_to_ui": " & "
      }, 
      "kind": "field", 
      "is_custom": false, 
      "is_csp": false, 
      "column": "name", 
      "rec_index": 2, 
      "search_terms": [
        "authors", 
        "author"
      ], 
      "link_column": "author", 
      "label": "authors", 
      "is_editable": true, 
      "datatype": "text", 
      "category_sort": "sort", 
      "table": "authors", 
      "display": {}, 
      "name": "Auteurs"
    }, 
    "news": {
      "is_category": true, 
      "is_multiple": {}, 
      "kind": "category", 
      "is_custom": false, 
      "is_csp": false, 
      "column": "name", 
      "search_terms": [], 
      "label": "news", 
      "is_editable": true, 
      "datatype": null, 
      "category_sort": "name", 
      "table": "news", 
      "display": {}, 
      "name": "Actualit\u00e9s"
    }, 
    "publisher": {
      "is_category": true, 
      "is_multiple": {}, 
      "kind": "field", 
      "is_custom": false, 
      "is_csp": false, 
      "column": "name", 
      "rec_index": 9, 
      "search_terms": [
        "publisher"
      ], 
      "link_column": "publisher", 
      "label": "publisher", 
      "is_editable": true, 
      "datatype": "text", 
      "category_sort": "name", 
      "table": "publishers", 
      "display": {}, 
      "name": "\u00c9diteur"
    }, 
    "series_index": {
      "is_category": false, 
      "is_multiple": {}, 
      "kind": "field", 
      "is_custom": false, 
      "is_csp": false, 
      "column": null, 
      "rec_index": 10, 
      "search_terms": [
        "series_index"
      ], 
      "label": "series_index", 
      "is_editable": true, 
      "datatype": "float", 
      "table": null, 
      "display": {}, 
      "name": null
    }, 
    "author_sort": {
      "is_category": false, 
      "is_multiple": {}, 
      "kind": "field", 
      "is_custom": false, 
      "is_csp": false, 
      "column": null, 
      "rec_index": 12, 
      "search_terms": [
        "author_sort"
      ], 
      "label": "author_sort", 
      "is_editable": true, 
      "datatype": "text", 
      "table": null, 
      "display": {}, 
      "name": "Tri par auteur"
    }, 
    "cover": {
      "is_category": false, 
      "is_multiple": {}, 
      "kind": "field", 
      "is_custom": false, 
      "is_csp": false, 
      "column": null, 
      "rec_index": 17, 
      "search_terms": [
        "cover"
      ], 
      "label": "cover", 
      "is_editable": true, 
      "datatype": "int", 
      "table": null, 
      "display": {}, 
      "name": "Couverture"
    }, 
    "ondevice": {
      "is_category": false, 
      "is_multiple": {}, 
      "kind": "field", 
      "is_custom": false, 
      "is_csp": false, 
      "column": null, 
      "rec_index": 22, 
      "search_terms": [
        "ondevice"
      ], 
      "label": "ondevice", 
      "is_editable": true, 
      "datatype": "text", 
      "table": null, 
      "display": {}, 
      "name": "Sur le dispositif"
    }, 
    "formats": {
      "is_category": true, 
      "is_multiple": {
        "cache_to_list": ",", 
        "ui_to_list": ",", 
        "list_to_ui": ", "
      }, 
      "kind": "field", 
      "is_custom": false, 
      "is_csp": false, 
      "column": null, 
      "rec_index": 13, 
      "search_terms": [
        "formats", 
        "format"
      ], 
      "label": "formats", 
      "is_editable": true, 
      "datatype": "text", 
      "table": null, 
      "display": {}, 
      "name": "Formats"
    }
  }, 
  "grouped_search_terms": {}, 
  "tag_browser_hidden_categories": [], 
  "gui_view_history": [
    [
      4, 
      "20,000 Leagues Under the Sea"
    ], 
    [
      9, 
      "HerveLeCarre-LAL-Odysseus-Fr"
    ], 
    [
      8, 
      "HenryTheSquare-FAL-Odysseus-En"
    ], 
    [
      6, 
      "20000 leguas de viaje submarino"
    ]
  ], 
  "library_view books view state": {
    "column_alignment": {
      "timestamp": "center", 
      "pubdate": "center", 
      "size": "center"
    }, 
    "column_sizes": {
      "rating": 80, 
      "pubdate": 79, 
      "tags": 105, 
      "series": 71, 
      "timestamp": 80, 
      "title": 293, 
      "publisher": 85, 
      "languages": 0, 
      "last_modified": 0, 
      "authors": 99, 
      "size": 104
    }, 
    "languages_injected": true, 
    "column_positions": {
      "rating": 5, 
      "pubdate": 9, 
      "title": 1, 
      "series": 7, 
      "timestamp": 3, 
      "tags": 6, 
      "publisher": 8, 
      "languages": 11, 
      "last_modified": 10, 
      "ondevice": 0, 
      "authors": 2, 
      "size": 4
    }, 
    "sort_history": [
      [
        "timestamp", 
        false
      ]
    ], 
    "hidden_columns": [
      "last_modified", 
      "languages"
    ], 
    "last_modified_injected": true
  }, 
  "bools_are_tristate": true
}